{
"type": "FeatureCollection",
"features": [
{ "type": "Feature", "properties": { "Status": "Alive", "essence": "walnut" }, "geometry": { "type": "Point", "coordinates": [ 4.3072450201723, 50.813930006589032 ] } },
{ "type": "Feature", "properties": { "Status": "Alive", "essence": "walnut" }, "geometry": { "type": "Point", "coordinates": [ 4.301438896872194, 50.812808609550906 ] } },
{ "type": "Feature", "properties": { "Status": "Removed", "essence": "walnut" }, "geometry": { "type": "Point", "coordinates": [ 4.402006784465027, 50.862616923896319 ] } },
{ "type": "Feature", "properties": { "Status": "Alive", "essence": "walnut" }, "geometry": { "type": "Point", "coordinates": [ 4.289017285468305, 50.813911544909843 ] } },
{ "type": "Feature", "properties": { "Status": "Alive", "essence": "walnut" }, "geometry": { "type": "Point", "coordinates": [ 4.288084796426799, 50.814736834169317 ] } },
{ "type": "Feature", "properties": { "Status": "Alive", "essence": "walnut" }, "geometry": { "type": "Point", "coordinates": [ 4.318130093116188, 50.875576010058147 ] } },
{ "type": "Feature", "properties": { "Status": "Alive", "essence": "walnut" }, "geometry": { "type": "Point", "coordinates": [ 4.34802946655478, 50.897830596618221 ] } },
{ "type": "Feature", "properties": { "Status": "Alive", "essence": "walnut" }, "geometry": { "type": "Point", "coordinates": [ 4.348893463453099, 50.897043107364354 ] } },
{ "type": "Feature", "properties": { "Status": "Alive", "essence": "walnut" }, "geometry": { "type": "Point", "coordinates": [ 4.281480879836626, 50.836550823854054 ] } },
{ "type": "Feature", "properties": { "Status": "Alive", "essence": "walnut" }, "geometry": { "type": "Point", "coordinates": [ 4.281280953214251, 50.834421264759463 ] } },
{ "type": "Feature", "properties": { "Status": "Alive", "essence": "walnut" }, "geometry": { "type": "Point", "coordinates": [ 4.280558030819301, 50.830793206328636 ] } },
{ "type": "Feature", "properties": { "Status": "Alive", "essence": "walnut" }, "geometry": { "type": "Point", "coordinates": [ 4.281569948436775, 50.830984537623436 ] } },
{ "type": "Feature", "properties": { "Status": "Alive", "essence": "walnut" }, "geometry": { "type": "Point", "coordinates": [ 4.282468975123676, 50.833410367806614 ] } },
{ "type": "Feature", "properties": { "Status": "Alive", "essence": "walnut" }, "geometry": { "type": "Point", "coordinates": [ 4.29972573141263, 50.810226463515328 ] } },
{ "type": "Feature", "properties": { "Status": "Alive", "essence": "walnut" }, "geometry": { "type": "Point", "coordinates": [ 4.299352009676127, 50.810734282599853 ] } },
{ "type": "Feature", "properties": { "Status": "Alive", "essence": "walnut" }, "geometry": { "type": "Point", "coordinates": [ 4.285653010753387, 50.818396052404324 ] } },
{ "type": "Feature", "properties": { "Status": "Alive", "essence": "walnut" }, "geometry": { "type": "Point", "coordinates": [ 4.293995939458883, 50.812763141902856 ] } },
{ "type": "Feature", "properties": { "Status": "Alive", "essence": "walnut" }, "geometry": { "type": "Point", "coordinates": [ 4.292007117901129, 50.813715900971445 ] } },
{ "type": "Feature", "properties": { "Status": "Alive", "essence": "walnut" }, "geometry": { "type": "Point", "coordinates": [ 4.27246459085308, 50.819477095106684 ] } },
{ "type": "Feature", "properties": { "Status": "Alive", "essence": "walnut" }, "geometry": { "type": "Point", "coordinates": [ 4.288188447990629, 50.814919787902944 ] } },
{ "type": "Feature", "properties": { "Status": "Alive", "essence": "walnut" }, "geometry": { "type": "Point", "coordinates": [ 4.30117812775852, 50.809532441785237 ] } },
{ "type": "Feature", "properties": { "Status": "Alive", "essence": "walnut" }, "geometry": { "type": "Point", "coordinates": [ 4.316317486361595, 50.879857261551891 ] } },
{ "type": "Feature", "properties": { "Status": "Alive", "essence": "walnut" }, "geometry": { "type": "Point", "coordinates": [ 4.310954634445947, 50.885867404865301 ] } },
{ "type": "Feature", "properties": { "Status": "Alive", "essence": "walnut" }, "geometry": { "type": "Point", "coordinates": [ 4.444131870796809, 50.853063649377745 ] } },
{ "type": "Feature", "properties": { "Status": "Alive", "essence": "walnut" }, "geometry": { "type": "Point", "coordinates": [ 4.441333096859418, 50.849879667508318 ] } }
]
}
