{
"type": "FeatureCollection",
"features": [
{ "type": "Feature", "properties": { "Status": "Alive", "essence": "holly" }, "geometry": { "type": "Point", "coordinates": [ 4.426543151880036, 50.812449263631883 ] } },
{ "type": "Feature", "properties": { "Status": "Alive", "essence": "holly" }, "geometry": { "type": "Point", "coordinates": [ 4.426609233924114, 50.812440969198164 ] } },
{ "type": "Feature", "properties": { "Status": "Alive", "essence": "holly" }, "geometry": { "type": "Point", "coordinates": [ 4.42668144574422, 50.812432797515839 ] } },
{ "type": "Feature", "properties": { "Status": "Alive", "essence": "holly" }, "geometry": { "type": "Point", "coordinates": [ 4.426740195702193, 50.812427446273986 ] } },
{ "type": "Feature", "properties": { "Status": "Alive", "essence": "holly" }, "geometry": { "type": "Point", "coordinates": [ 4.426826083345319, 50.812417415797313 ] } },
{ "type": "Feature", "properties": { "Status": "Alive", "essence": "holly" }, "geometry": { "type": "Point", "coordinates": [ 4.357365138052065, 50.895465784560074 ] } },
{ "type": "Feature", "properties": { "Status": "Alive", "essence": "holly" }, "geometry": { "type": "Point", "coordinates": [ 4.396095898389591, 50.843125627200756 ] } },
{ "type": "Feature", "properties": { "Status": "Alive", "essence": "holly" }, "geometry": { "type": "Point", "coordinates": [ 4.395890911747553, 50.843165158897875 ] } },
{ "type": "Feature", "properties": { "Status": "Alive", "essence": "holly" }, "geometry": { "type": "Point", "coordinates": [ 4.356615800492163, 50.89458385219887 ] } },
{ "type": "Feature", "properties": { "Status": "Alive", "essence": "holly" }, "geometry": { "type": "Point", "coordinates": [ 4.356709743104146, 50.894522269618633 ] } },
{ "type": "Feature", "properties": { "Status": "Alive", "essence": "holly" }, "geometry": { "type": "Point", "coordinates": [ 4.418198812857015, 50.814086182962974 ] } },
{ "type": "Feature", "properties": { "Status": "Alive", "essence": "holly" }, "geometry": { "type": "Point", "coordinates": [ 4.417766835258998, 50.814357694462736 ] } }
]
}
